{
  "Localization": {
    "Language": "Ru"
  },
  "Database": {
    "ConnectionString": "Server=localhost;Port=5432;Database=app_satel_sppur;User ID=satel;Password=VJCN5X6AsHxKs85P;Timeout=1024;CommandTimeout=1024;ConvertInfinityDateTime=true;MinPoolSize=0;MaxPoolSize=64;MaxAutoPrepare=256;AutoPrepareMinUsages=3;ReadBufferSize=16384;WriteBufferSize=16384;ConnectionPruningInterval=5;ConnectionIdleLifetime=15;",
    "Dialect": "PostgreSql",
    "Parameters": {
      "show_sql": true
    }
  },
  "RootPassword": "123",
  "AppId": "app_satel.sppur",
  "AppTitle": "СППУР",
  "AppSettings": {},
  "Modules": {
    "BarsUp.Modules.PostgreSql": {
      "ForeignServers": {}
    }
  }
}